%!PS-Adobe-3.0 EPSF-3.0
%%Creator: graphviz version 2.26.3 (20100126.1600)
%%Title: a
%%Pages: 1
%%BoundingBox: 36 36 897 818
%%EndComments
save
%%BeginProlog
/DotDict 200 dict def
DotDict begin

/setupLatin1 {
mark
/EncodingVector 256 array def
 EncodingVector 0

ISOLatin1Encoding 0 255 getinterval putinterval
EncodingVector 45 /hyphen put

% Set up ISO Latin 1 character encoding
/starnetISO {
        dup dup findfont dup length dict begin
        { 1 index /FID ne { def }{ pop pop } ifelse
        } forall
        /Encoding EncodingVector def
        currentdict end definefont
} def
/Times-Roman starnetISO def
/Times-Italic starnetISO def
/Times-Bold starnetISO def
/Times-BoldItalic starnetISO def
/Helvetica starnetISO def
/Helvetica-Oblique starnetISO def
/Helvetica-Bold starnetISO def
/Helvetica-BoldOblique starnetISO def
/Courier starnetISO def
/Courier-Oblique starnetISO def
/Courier-Bold starnetISO def
/Courier-BoldOblique starnetISO def
cleartomark
} bind def

%%BeginResource: procset graphviz 0 0
/coord-font-family /Times-Roman def
/default-font-family /Times-Roman def
/coordfont coord-font-family findfont 8 scalefont def

/InvScaleFactor 1.0 def
/set_scale {
       dup 1 exch div /InvScaleFactor exch def
       scale
} bind def

% styles
/solid { [] 0 setdash } bind def
/dashed { [9 InvScaleFactor mul dup ] 0 setdash } bind def
/dotted { [1 InvScaleFactor mul 6 InvScaleFactor mul] 0 setdash } bind def
/invis {/fill {newpath} def /stroke {newpath} def /show {pop newpath} def} bind def
/bold { 2 setlinewidth } bind def
/filled { } bind def
/unfilled { } bind def
/rounded { } bind def
/diagonals { } bind def

% hooks for setting color 
/nodecolor { sethsbcolor } bind def
/edgecolor { sethsbcolor } bind def
/graphcolor { sethsbcolor } bind def
/nopcolor {pop pop pop} bind def

/beginpage {	% i j npages
	/npages exch def
	/j exch def
	/i exch def
	/str 10 string def
	npages 1 gt {
		gsave
			coordfont setfont
			0 0 moveto
			(\() show i str cvs show (,) show j str cvs show (\)) show
		grestore
	} if
} bind def

/set_font {
	findfont exch
	scalefont setfont
} def

% draw text fitted to its expected width
/alignedtext {			% width text
	/text exch def
	/width exch def
	gsave
		width 0 gt {
			[] 0 setdash
			text stringwidth pop width exch sub text length div 0 text ashow
		} if
	grestore
} def

/boxprim {				% xcorner ycorner xsize ysize
		4 2 roll
		moveto
		2 copy
		exch 0 rlineto
		0 exch rlineto
		pop neg 0 rlineto
		closepath
} bind def

/ellipse_path {
	/ry exch def
	/rx exch def
	/y exch def
	/x exch def
	matrix currentmatrix
	newpath
	x y translate
	rx ry scale
	0 0 1 0 360 arc
	setmatrix
} bind def

/endpage { showpage } bind def
/showpage { } def

/layercolorseq
	[	% layer color sequence - darkest to lightest
		[0 0 0]
		[.2 .8 .8]
		[.4 .8 .8]
		[.6 .8 .8]
		[.8 .8 .8]
	]
def

/layerlen layercolorseq length def

/setlayer {/maxlayer exch def /curlayer exch def
	layercolorseq curlayer 1 sub layerlen mod get
	aload pop sethsbcolor
	/nodecolor {nopcolor} def
	/edgecolor {nopcolor} def
	/graphcolor {nopcolor} def
} bind def

/onlayer { curlayer ne {invis} if } def

/onlayers {
	/myupper exch def
	/mylower exch def
	curlayer mylower lt
	curlayer myupper gt
	or
	{invis} if
} def

/curlayer 0 def

%%EndResource
%%EndProlog
%%BeginSetup
14 default-font-family set_font
1 setmiterlimit
% /arrowlength 10 def
% /arrowwidth 5 def

% make sure pdfmark is harmless for PS-interpreters other than Distiller
/pdfmark where {pop} {userdict /pdfmark /cleartomark load put} ifelse
% make '<<' and '>>' safe on PS Level 1 devices
/languagelevel where {pop languagelevel}{1} ifelse
2 lt {
    userdict (<<) cvn ([) cvn load put
    userdict (>>) cvn ([) cvn load put
} if

%%EndSetup
setupLatin1
%%Page: 1 1
%%PageBoundingBox: 36 36 897 818
%%PageOrientation: Portrait
0 0 1 beginpage
gsave
36 36 861 782 boxprim clip newpath
1 1 set_scale 0 rotate 40 41 translate
% ST_EMPTY
gsave
1 setlinewidth
0 0 0 nodecolor
171 755 63.14 18.38 ellipse_path stroke
0 0 0 nodecolor
14 /Times-Roman set_font
134 751.4 moveto 74 (ST_EMPTY) alignedtext
grestore
% ST_INIT
gsave
1 setlinewidth
0 0 0 nodecolor
171 663 50.2 18.38 ellipse_path stroke
0 0 0 nodecolor
14 /Times-Roman set_font
143.5 659.4 moveto 55 (ST_INIT) alignedtext
grestore
% ST_EMPTY->ST_INIT
gsave
1 setlinewidth
0 0 0 edgecolor
newpath 171 736.38 moveto
171 723.54 171 706.22 171 691.63 curveto
stroke
0 0 0 edgecolor
newpath 174.5 691.59 moveto
171 681.59 lineto
167.5 691.59 lineto
closepath fill
1 setlinewidth
solid
0 0 0 edgecolor
newpath 174.5 691.59 moveto
171 681.59 lineto
167.5 691.59 lineto
closepath stroke
0 0 0 edgecolor
14 /Times-Roman set_font
171 705.4 moveto 29 (INIT) alignedtext
grestore
% ST_WAIT
gsave
1 setlinewidth
0 0 0 nodecolor
302 571 56.07 18.38 ellipse_path stroke
0 0 0 nodecolor
14 /Times-Roman set_font
270 567.4 moveto 64 (ST_WAIT) alignedtext
grestore
% ST_INIT->ST_WAIT
gsave
1 setlinewidth
0 0 0 edgecolor
newpath 194.42 646.55 moveto
215.39 631.82 246.35 610.08 269.68 593.7 curveto
stroke
0 0 0 edgecolor
newpath 271.72 596.54 moveto
277.9 587.93 lineto
267.7 590.81 lineto
closepath fill
1 setlinewidth
solid
0 0 0 edgecolor
newpath 271.72 596.54 moveto
277.9 587.93 lineto
267.7 590.81 lineto
closepath stroke
0 0 0 edgecolor
14 /Times-Roman set_font
248 613.4 moveto 98 (INIT_LOGGED) alignedtext
grestore
% ST_SUB_WAIT
gsave
1 setlinewidth
0 0 0 nodecolor
342 479 82.02 18.38 ellipse_path stroke
0 0 0 nodecolor
14 /Times-Roman set_font
292 475.4 moveto 100 (ST_SUB_WAIT) alignedtext
grestore
% ST_INIT->ST_SUB_WAIT
gsave
1 setlinewidth
0 0 0 edgecolor
newpath 157.39 644.9 moveto
141.89 621.9 120.93 581.62 139 552 curveto
153.48 528.27 219.41 507.52 272.27 494.27 curveto
stroke
0 0 0 edgecolor
newpath 273.43 497.59 moveto
282.31 491.8 lineto
271.76 490.79 lineto
closepath fill
1 setlinewidth
solid
0 0 0 edgecolor
newpath 273.43 497.59 moveto
282.31 491.8 lineto
271.76 490.79 lineto
closepath stroke
0 0 0 edgecolor
14 /Times-Roman set_font
139 567.4 moveto 98 (INIT_LOGGED) alignedtext
grestore
% ST_AKN_ABORT
gsave
1 setlinewidth
0 0 0 nodecolor
364 295 90.01 18.38 ellipse_path stroke
0 0 0 nodecolor
14 /Times-Roman set_font
308 291.4 moveto 112 (ST_AKN_ABORT) alignedtext
grestore
% ST_INIT->ST_AKN_ABORT
gsave
1 setlinewidth
0 0 0 edgecolor
newpath 122.91 657.71 moveto
72.33 649.16 0 627.13 0 571 curveto
0 571 0 571 0 387 curveto
0 325.92 204.98 325.33 265 314 curveto
272.56 312.57 280.44 311.08 288.31 309.58 curveto
stroke
0 0 0 edgecolor
newpath 289.08 312.99 moveto
298.24 307.68 lineto
287.76 306.12 lineto
closepath fill
1 setlinewidth
solid
0 0 0 edgecolor
newpath 289.08 312.99 moveto
298.24 307.68 lineto
287.76 306.12 lineto
closepath stroke
0 0 0 edgecolor
14 /Times-Roman set_font
0 475.4 moveto 105 (CRASH_ABORT) alignedtext
grestore
% ST_ABORT
gsave
1 setlinewidth
0 0 0 nodecolor
762 387 63.85 18.38 ellipse_path stroke
0 0 0 nodecolor
14 /Times-Roman set_font
724.5 383.4 moveto 75 (ST_ABORT) alignedtext
grestore
% ST_INIT->ST_ABORT
gsave
1 setlinewidth
0 0 0 edgecolor
newpath 217.7 656.39 moveto
302.07 643 483.69 607.5 619 534 curveto
676.21 502.92 693.25 493.57 733 442 curveto
739.41 433.69 745.13 423.76 749.77 414.63 curveto
stroke
0 0 0 edgecolor
newpath 752.97 416.05 moveto
754.18 405.52 lineto
746.67 412.99 lineto
closepath fill
1 setlinewidth
solid
0 0 0 edgecolor
newpath 752.97 416.05 moveto
754.18 405.52 lineto
746.67 412.99 lineto
closepath stroke
0 0 0 edgecolor
14 /Times-Roman set_font
651 521.4 moveto 66 (TIMEOUT) alignedtext
grestore
% ST_WAIT->ST_WAIT
gsave
1 setlinewidth
0 0 0 edgecolor
newpath 351.8 579.57 moveto
365.52 579.16 376 576.3 376 571 curveto
376 567.11 370.35 564.53 361.91 563.27 curveto
stroke
0 0 0 edgecolor
newpath 362.06 559.78 moveto
351.8 562.43 lineto
361.48 566.75 lineto
closepath fill
1 setlinewidth
solid
0 0 0 edgecolor
newpath 362.06 559.78 moveto
351.8 562.43 lineto
361.48 566.75 lineto
closepath stroke
0 0 0 edgecolor
14 /Times-Roman set_font
376 567.4 moveto 101 (JOB_FINISHED) alignedtext
grestore
% ST_WAIT->ST_SUB_WAIT
gsave
1 setlinewidth
0 0 0 edgecolor
newpath 310.09 552.38 moveto
315.79 539.29 323.5 521.54 329.92 506.78 curveto
stroke
0 0 0 edgecolor
newpath 333.14 508.16 moveto
333.92 497.59 lineto
326.72 505.37 lineto
closepath fill
1 setlinewidth
solid
0 0 0 edgecolor
newpath 333.14 508.16 moveto
333.92 497.59 lineto
326.72 505.37 lineto
closepath stroke
0 0 0 edgecolor
14 /Times-Roman set_font
325 521.4 moveto 101 (JOB_FINISHED) alignedtext
grestore
% ST_WAIT->ST_AKN_ABORT
gsave
1 setlinewidth
0 0 0 edgecolor
newpath 357.5 567.96 moveto
446.87 561.75 616.19 544.05 651 498 curveto
719.45 407.45 536.93 341.32 431.99 311.92 curveto
stroke
0 0 0 edgecolor
newpath 432.66 308.48 moveto
422.09 309.19 lineto
430.8 315.22 lineto
closepath fill
1 setlinewidth
solid
0 0 0 edgecolor
newpath 432.66 308.48 moveto
422.09 309.19 lineto
430.8 315.22 lineto
closepath stroke
0 0 0 edgecolor
14 /Times-Roman set_font
663 429.4 moveto 66 (TIMEOUT) alignedtext
grestore
% ST_VOTES
gsave
1 setlinewidth
0 0 0 nodecolor
235 387 63.14 18.38 ellipse_path stroke
0 0 0 nodecolor
14 /Times-Roman set_font
198 383.4 moveto 74 (ST_VOTES) alignedtext
grestore
% ST_WAIT->ST_VOTES
gsave
1 setlinewidth
0 0 0 edgecolor
newpath 252.02 562.42 moveto
216.15 553.26 170.63 534.76 150 498 curveto
131.43 464.92 167.22 430.85 197.92 409.34 curveto
stroke
0 0 0 edgecolor
newpath 200.06 412.11 moveto
206.39 403.61 lineto
196.15 406.31 lineto
closepath fill
1 setlinewidth
solid
0 0 0 edgecolor
newpath 200.06 412.11 moveto
206.39 403.61 lineto
196.15 406.31 lineto
closepath stroke
0 0 0 edgecolor
14 /Times-Roman set_font
150 475.4 moveto 101 (JOB_FINISHED) alignedtext
grestore
% ST_SUB_WAIT->ST_WAIT
gsave
1 setlinewidth
0 0 0 edgecolor
newpath 396.99 492.89 moveto
422.2 502.03 443.75 515.71 430 534 curveto
421.42 545.41 391.35 554.42 362.51 560.69 curveto
stroke
0 0 0 edgecolor
newpath 361.48 557.33 moveto
352.4 562.79 lineto
362.9 564.19 lineto
closepath fill
1 setlinewidth
solid
0 0 0 edgecolor
newpath 361.48 557.33 moveto
352.4 562.79 lineto
362.9 564.19 lineto
closepath stroke
0 0 0 edgecolor
14 /Times-Roman set_font
434 521.4 moveto 86 (SUB_ABORT) alignedtext
grestore
% ST_SUB_WAIT->ST_WAIT
gsave
1 setlinewidth
0 0 0 edgecolor
newpath 278.29 490.72 moveto
251.98 496.98 225.79 505.55 218 516 curveto
205.04 533.4 224.54 546.88 248 556.14 curveto
stroke
0 0 0 edgecolor
newpath 246.89 559.46 moveto
257.49 559.61 lineto
249.29 552.89 lineto
closepath fill
1 setlinewidth
solid
0 0 0 edgecolor
newpath 246.89 559.46 moveto
257.49 559.61 lineto
249.29 552.89 lineto
closepath stroke
0 0 0 edgecolor
14 /Times-Roman set_font
218 521.4 moveto 96 (SUB_COMMIT) alignedtext
grestore
% ST_SUB_WAIT->ST_SUB_WAIT
gsave
1 setlinewidth
0 0 0 edgecolor
newpath 422.43 482.89 moveto
434.12 482.27 442 480.98 442 479 curveto
442 477.67 438.44 476.65 432.56 475.94 curveto
stroke
0 0 0 edgecolor
newpath 432.68 472.43 moveto
422.43 475.11 lineto
432.11 479.41 lineto
closepath fill
1 setlinewidth
solid
0 0 0 edgecolor
newpath 432.68 472.43 moveto
422.43 475.11 lineto
432.11 479.41 lineto
closepath stroke
0 0 0 edgecolor
14 /Times-Roman set_font
442 475.4 moveto 96 (SUB_COMMIT) alignedtext
grestore
% ST_SUB_WAIT->ST_SUB_WAIT
gsave
1 setlinewidth
0 0 0 edgecolor
newpath 394.98 493.16 moveto
455.3 500.97 538 496.26 538 479 curveto
538 462.69 464.1 457.58 405.06 463.67 curveto
stroke
0 0 0 edgecolor
newpath 404.51 460.21 moveto
394.98 464.84 lineto
405.32 467.17 lineto
closepath fill
1 setlinewidth
solid
0 0 0 edgecolor
newpath 404.51 460.21 moveto
394.98 464.84 lineto
405.32 467.17 lineto
closepath stroke
0 0 0 edgecolor
14 /Times-Roman set_font
538 475.4 moveto 86 (SUB_ABORT) alignedtext
grestore
% ST_SUB_WAIT->ST_AKN_ABORT
gsave
1 setlinewidth
0 0 0 edgecolor
newpath 389.74 463.78 moveto
399.37 458.45 408.29 451.36 414 442 curveto
439.47 400.27 436 375.66 414 332 curveto
411.6 327.24 408.27 322.94 404.45 319.1 curveto
stroke
0 0 0 edgecolor
newpath 406.47 316.22 moveto
396.63 312.28 lineto
401.87 321.49 lineto
closepath fill
1 setlinewidth
solid
0 0 0 edgecolor
newpath 406.47 316.22 moveto
396.63 312.28 lineto
401.87 321.49 lineto
closepath stroke
0 0 0 edgecolor
14 /Times-Roman set_font
431 383.4 moveto 66 (TIMEOUT) alignedtext
grestore
% ST_SUB_WAIT->ST_ABORT
gsave
1 setlinewidth
0 0 0 edgecolor
newpath 399.14 465.52 moveto
447.71 454.16 519.34 437.62 582 424 curveto
620.87 415.55 664.58 406.56 699.19 399.55 curveto
stroke
0 0 0 edgecolor
newpath 700.05 402.95 moveto
709.16 397.53 lineto
698.67 396.08 lineto
closepath fill
1 setlinewidth
solid
0 0 0 edgecolor
newpath 700.05 402.95 moveto
709.16 397.53 lineto
698.67 396.08 lineto
closepath stroke
0 0 0 edgecolor
14 /Times-Roman set_font
582 429.4 moveto 66 (TIMEOUT) alignedtext
grestore
% ST_SUB_WAIT->ST_VOTES
gsave
1 setlinewidth
0 0 0 edgecolor
newpath 277.12 467.55 moveto
250.05 461.32 223.03 452.7 215 442 curveto
208.81 433.75 210.68 423.39 215.18 413.89 curveto
stroke
0 0 0 edgecolor
newpath 218.25 415.57 moveto
220.14 405.15 lineto
212.16 412.12 lineto
closepath fill
1 setlinewidth
solid
0 0 0 edgecolor
newpath 218.25 415.57 moveto
220.14 405.15 lineto
212.16 412.12 lineto
closepath stroke
0 0 0 edgecolor
14 /Times-Roman set_font
215 429.4 moveto 96 (SUB_COMMIT) alignedtext
grestore
% ST_SUB_WAIT->ST_VOTES
gsave
1 setlinewidth
0 0 0 edgecolor
newpath 334.99 460.55 moveto
329.8 448.88 321.77 434.14 311 424 curveto
303.39 416.83 294.13 410.79 284.73 405.8 curveto
stroke
0 0 0 edgecolor
newpath 286.23 402.64 moveto
275.72 401.34 lineto
283.13 408.91 lineto
closepath fill
1 setlinewidth
solid
0 0 0 edgecolor
newpath 286.23 402.64 moveto
275.72 401.34 lineto
283.13 408.91 lineto
closepath stroke
0 0 0 edgecolor
14 /Times-Roman set_font
324 429.4 moveto 86 (SUB_ABORT) alignedtext
grestore
% ST_AKN_ABORT->ST_AKN_ABORT
gsave
1 setlinewidth
0 0 0 edgecolor
newpath 452.14 298.83 moveto
464.06 298.18 472 296.91 472 295 curveto
472 293.72 468.42 292.72 462.45 292.01 curveto
stroke
0 0 0 edgecolor
newpath 462.39 288.49 moveto
452.14 291.17 lineto
461.82 295.47 lineto
closepath fill
1 setlinewidth
solid
0 0 0 edgecolor
newpath 462.39 288.49 moveto
452.14 291.17 lineto
461.82 295.47 lineto
closepath stroke
0 0 0 edgecolor
14 /Times-Roman set_font
472 291.4 moveto 116 (AKNOWLEDGED) alignedtext
grestore
% ST_AKN_ABORT->ST_AKN_ABORT
gsave
1 setlinewidth
0 0 0 edgecolor
newpath 422.72 309.09 moveto
491.41 317 588 312.3 588 295 curveto
588 278.54 500.61 273.49 432.97 279.84 curveto
stroke
0 0 0 edgecolor
newpath 432.3 276.39 moveto
422.72 280.91 lineto
433.03 283.35 lineto
closepath fill
1 setlinewidth
solid
0 0 0 edgecolor
newpath 432.3 276.39 moveto
422.72 280.91 lineto
433.03 283.35 lineto
closepath stroke
0 0 0 edgecolor
14 /Times-Roman set_font
588 291.4 moveto 128 (OUTCOME_ASKED) alignedtext
grestore
% ST_LOG_END
gsave
1 setlinewidth
0 0 0 nodecolor
572 111 77.78 18.38 ellipse_path stroke
0 0 0 nodecolor
14 /Times-Roman set_font
525 107.4 moveto 94 (ST_LOG_END) alignedtext
grestore
% ST_AKN_ABORT->ST_LOG_END
gsave
1 setlinewidth
0 0 0 edgecolor
newpath 433.22 283.1 moveto
471.38 273.05 516.63 254.8 545 222 curveto
564.66 199.26 570.51 164.54 572 139.99 curveto
stroke
0 0 0 edgecolor
newpath 575.51 139.97 moveto
572.41 129.84 lineto
568.51 139.69 lineto
closepath fill
1 setlinewidth
solid
0 0 0 edgecolor
newpath 575.51 139.97 moveto
572.41 129.84 lineto
568.51 139.69 lineto
closepath stroke
0 0 0 edgecolor
14 /Times-Roman set_font
564 199.4 moveto 116 (AKNOWLEDGED) alignedtext
grestore
% ST_ABORT->ST_LOG_END
gsave
1 setlinewidth
0 0 0 edgecolor
newpath 761.08 368.33 moveto
759.45 345.77 755.02 306.99 743 276 curveto
725.44 230.71 718.22 218.47 684 184 curveto
663.66 163.51 636.65 145.7 614.25 132.8 curveto
stroke
0 0 0 edgecolor
newpath 615.72 129.61 moveto
605.29 127.76 lineto
612.29 135.71 lineto
closepath fill
1 setlinewidth
solid
0 0 0 edgecolor
newpath 615.72 129.61 moveto
605.29 127.76 lineto
612.29 135.71 lineto
closepath stroke
0 0 0 edgecolor
14 /Times-Roman set_font
735 245.4 moveto 118 (ABORT_LOGGED) alignedtext
grestore
% ST_VOTES->ST_AKN_ABORT
gsave
1 setlinewidth
0 0 0 edgecolor
newpath 280.26 374.07 moveto
295.49 368.3 311.91 360.41 325 350 curveto
334.47 342.47 342.65 332.05 349.04 322.31 curveto
stroke
0 0 0 edgecolor
newpath 352.11 324 moveto
354.39 313.65 lineto
346.15 320.32 lineto
closepath fill
1 setlinewidth
solid
0 0 0 edgecolor
newpath 352.11 324 moveto
354.39 313.65 lineto
346.15 320.32 lineto
closepath stroke
0 0 0 edgecolor
14 /Times-Roman set_font
341 337.4 moveto 69 (VOTE_NO) alignedtext
grestore
% ST_VOTES->ST_AKN_ABORT
gsave
1 setlinewidth
0 0 0 edgecolor
newpath 237.55 368.45 moveto
240.1 356.58 245.12 341.67 255 332 curveto
264.07 323.12 275.35 316.37 287.19 311.24 curveto
stroke
0 0 0 edgecolor
newpath 288.75 314.39 moveto
296.77 307.46 lineto
286.18 307.87 lineto
closepath fill
1 setlinewidth
solid
0 0 0 edgecolor
newpath 288.75 314.39 moveto
296.77 307.46 lineto
286.18 307.87 lineto
closepath stroke
0 0 0 edgecolor
14 /Times-Roman set_font
255 337.4 moveto 66 (TIMEOUT) alignedtext
grestore
% ST_VOTES->ST_VOTES
gsave
1 setlinewidth
0 0 0 edgecolor
newpath 291.03 395.52 moveto
305.29 394.96 316 392.12 316 387 curveto
316 383.2 310.1 380.65 301.23 379.37 curveto
stroke
0 0 0 edgecolor
newpath 301.29 375.86 moveto
291.03 378.48 lineto
300.69 382.83 lineto
closepath fill
1 setlinewidth
solid
0 0 0 edgecolor
newpath 301.29 375.86 moveto
291.03 378.48 lineto
300.69 382.83 lineto
closepath stroke
0 0 0 edgecolor
14 /Times-Roman set_font
316 383.4 moveto 51 (VOTED) alignedtext
grestore
% ST_COMMIT_LOG
gsave
1 setlinewidth
0 0 0 nodecolor
159 295 97.08 18.38 ellipse_path stroke
0 0 0 nodecolor
14 /Times-Roman set_font
98 291.4 moveto 122 (ST_COMMIT_LOG) alignedtext
grestore
% ST_VOTES->ST_COMMIT_LOG
gsave
1 setlinewidth
0 0 0 edgecolor
newpath 205.96 370.46 moveto
197.76 364.77 189.35 357.83 183 350 curveto
176.63 342.16 171.65 332.37 167.91 323.23 curveto
stroke
0 0 0 edgecolor
newpath 171.12 321.83 moveto
164.34 313.7 lineto
164.57 324.29 lineto
closepath fill
1 setlinewidth
solid
0 0 0 edgecolor
newpath 171.12 321.83 moveto
164.34 313.7 lineto
164.57 324.29 lineto
closepath stroke
0 0 0 edgecolor
14 /Times-Roman set_font
183 337.4 moveto 51 (VOTED) alignedtext
grestore
% ST_AKN_COMMIT
gsave
1 setlinewidth
0 0 0 nodecolor
159 203 96.87 18.38 ellipse_path stroke
0 0 0 nodecolor
14 /Times-Roman set_font
98.5 199.4 moveto 121 (ST_AKN_COMMIT) alignedtext
grestore
% ST_COMMIT_LOG->ST_AKN_COMMIT
gsave
1 setlinewidth
0 0 0 edgecolor
newpath 159 276.38 moveto
159 263.54 159 246.22 159 231.63 curveto
stroke
0 0 0 edgecolor
newpath 162.5 231.59 moveto
159 221.59 lineto
155.5 231.59 lineto
closepath fill
1 setlinewidth
solid
0 0 0 edgecolor
newpath 162.5 231.59 moveto
159 221.59 lineto
155.5 231.59 lineto
closepath stroke
0 0 0 edgecolor
14 /Times-Roman set_font
159 245.4 moveto 128 (COMMIT_LOGGED) alignedtext
grestore
% ST_AKN_COMMIT->ST_AKN_COMMIT
gsave
1 setlinewidth
0 0 0 edgecolor
newpath 254.18 206.76 moveto
266.13 206.09 274 204.84 274 203 curveto
274 201.76 270.45 200.79 264.49 200.09 curveto
stroke
0 0 0 edgecolor
newpath 264.43 196.57 moveto
254.18 199.24 lineto
263.86 203.55 lineto
closepath fill
1 setlinewidth
solid
0 0 0 edgecolor
newpath 264.43 196.57 moveto
254.18 199.24 lineto
263.86 203.55 lineto
closepath stroke
0 0 0 edgecolor
14 /Times-Roman set_font
274 199.4 moveto 128 (OUTCOME_ASKED) alignedtext
grestore
% ST_AKN_COMMIT->ST_AKN_COMMIT
gsave
1 setlinewidth
0 0 0 edgecolor
newpath 222.17 217.09 moveto
296.56 225 402 220.3 402 203 curveto
402 186.48 305.82 181.45 232.37 187.92 curveto
stroke
0 0 0 edgecolor
newpath 231.78 184.46 moveto
222.17 188.91 lineto
232.46 191.43 lineto
closepath fill
1 setlinewidth
solid
0 0 0 edgecolor
newpath 231.78 184.46 moveto
222.17 188.91 lineto
232.46 191.43 lineto
closepath stroke
0 0 0 edgecolor
14 /Times-Roman set_font
402 199.4 moveto 116 (AKNOWLEDGED) alignedtext
grestore
% ST_AKN_COMMIT->ST_LOG_END
gsave
1 setlinewidth
0 0 0 edgecolor
newpath 222.18 188.93 moveto
298.51 171.92 426.42 143.43 504.6 126.01 curveto
stroke
0 0 0 edgecolor
newpath 505.82 129.33 moveto
514.82 123.74 lineto
504.3 122.5 lineto
closepath fill
1 setlinewidth
solid
0 0 0 edgecolor
newpath 505.82 129.33 moveto
514.82 123.74 lineto
504.3 122.5 lineto
closepath stroke
0 0 0 edgecolor
14 /Times-Roman set_font
402 153.4 moveto 116 (AKNOWLEDGED) alignedtext
grestore
% ST_FINISH
gsave
1 setlinewidth
0 0 0 nodecolor
572 19 62.93 18.38 ellipse_path stroke
0 0 0 nodecolor
14 /Times-Roman set_font
535.5 15.4 moveto 73 (ST_FINISH) alignedtext
grestore
% ST_LOG_END->ST_FINISH
gsave
1 setlinewidth
0 0 0 edgecolor
newpath 572 92.38 moveto
572 79.54 572 62.22 572 47.63 curveto
stroke
0 0 0 edgecolor
newpath 575.5 47.59 moveto
572 37.59 lineto
568.5 47.59 lineto
closepath fill
1 setlinewidth
solid
0 0 0 edgecolor
newpath 575.5 47.59 moveto
572 37.59 lineto
568.5 47.59 lineto
closepath stroke
0 0 0 edgecolor
14 /Times-Roman set_font
572 61.4 moveto 100 (END_LOGGED) alignedtext
grestore
endpage
showpage
grestore
%%PageTrailer
%%EndPage: 1
%%Trailer
end
restore
%%EOF
