%!PS-Adobe-3.0 EPSF-3.0
%%Creator: graphviz version 2.26.3 (20100126.1600)
%%Title: a
%%Pages: 1
%%BoundingBox: 36 36 1030 910
%%EndComments
save
%%BeginProlog
/DotDict 200 dict def
DotDict begin

/setupLatin1 {
mark
/EncodingVector 256 array def
 EncodingVector 0

ISOLatin1Encoding 0 255 getinterval putinterval
EncodingVector 45 /hyphen put

% Set up ISO Latin 1 character encoding
/starnetISO {
        dup dup findfont dup length dict begin
        { 1 index /FID ne { def }{ pop pop } ifelse
        } forall
        /Encoding EncodingVector def
        currentdict end definefont
} def
/Times-Roman starnetISO def
/Times-Italic starnetISO def
/Times-Bold starnetISO def
/Times-BoldItalic starnetISO def
/Helvetica starnetISO def
/Helvetica-Oblique starnetISO def
/Helvetica-Bold starnetISO def
/Helvetica-BoldOblique starnetISO def
/Courier starnetISO def
/Courier-Oblique starnetISO def
/Courier-Bold starnetISO def
/Courier-BoldOblique starnetISO def
cleartomark
} bind def

%%BeginResource: procset graphviz 0 0
/coord-font-family /Times-Roman def
/default-font-family /Times-Roman def
/coordfont coord-font-family findfont 8 scalefont def

/InvScaleFactor 1.0 def
/set_scale {
       dup 1 exch div /InvScaleFactor exch def
       scale
} bind def

% styles
/solid { [] 0 setdash } bind def
/dashed { [9 InvScaleFactor mul dup ] 0 setdash } bind def
/dotted { [1 InvScaleFactor mul 6 InvScaleFactor mul] 0 setdash } bind def
/invis {/fill {newpath} def /stroke {newpath} def /show {pop newpath} def} bind def
/bold { 2 setlinewidth } bind def
/filled { } bind def
/unfilled { } bind def
/rounded { } bind def
/diagonals { } bind def

% hooks for setting color 
/nodecolor { sethsbcolor } bind def
/edgecolor { sethsbcolor } bind def
/graphcolor { sethsbcolor } bind def
/nopcolor {pop pop pop} bind def

/beginpage {	% i j npages
	/npages exch def
	/j exch def
	/i exch def
	/str 10 string def
	npages 1 gt {
		gsave
			coordfont setfont
			0 0 moveto
			(\() show i str cvs show (,) show j str cvs show (\)) show
		grestore
	} if
} bind def

/set_font {
	findfont exch
	scalefont setfont
} def

% draw text fitted to its expected width
/alignedtext {			% width text
	/text exch def
	/width exch def
	gsave
		width 0 gt {
			[] 0 setdash
			text stringwidth pop width exch sub text length div 0 text ashow
		} if
	grestore
} def

/boxprim {				% xcorner ycorner xsize ysize
		4 2 roll
		moveto
		2 copy
		exch 0 rlineto
		0 exch rlineto
		pop neg 0 rlineto
		closepath
} bind def

/ellipse_path {
	/ry exch def
	/rx exch def
	/y exch def
	/x exch def
	matrix currentmatrix
	newpath
	x y translate
	rx ry scale
	0 0 1 0 360 arc
	setmatrix
} bind def

/endpage { showpage } bind def
/showpage { } def

/layercolorseq
	[	% layer color sequence - darkest to lightest
		[0 0 0]
		[.2 .8 .8]
		[.4 .8 .8]
		[.6 .8 .8]
		[.8 .8 .8]
	]
def

/layerlen layercolorseq length def

/setlayer {/maxlayer exch def /curlayer exch def
	layercolorseq curlayer 1 sub layerlen mod get
	aload pop sethsbcolor
	/nodecolor {nopcolor} def
	/edgecolor {nopcolor} def
	/graphcolor {nopcolor} def
} bind def

/onlayer { curlayer ne {invis} if } def

/onlayers {
	/myupper exch def
	/mylower exch def
	curlayer mylower lt
	curlayer myupper gt
	or
	{invis} if
} def

/curlayer 0 def

%%EndResource
%%EndProlog
%%BeginSetup
14 default-font-family set_font
1 setmiterlimit
% /arrowlength 10 def
% /arrowwidth 5 def

% make sure pdfmark is harmless for PS-interpreters other than Distiller
/pdfmark where {pop} {userdict /pdfmark /cleartomark load put} ifelse
% make '<<' and '>>' safe on PS Level 1 devices
/languagelevel where {pop languagelevel}{1} ifelse
2 lt {
    userdict (<<) cvn ([) cvn load put
    userdict (>>) cvn ([) cvn load put
} if

%%EndSetup
setupLatin1
%%Page: 1 1
%%PageBoundingBox: 36 36 1030 910
%%PageOrientation: Portrait
0 0 1 beginpage
gsave
36 36 994 874 boxprim clip newpath
1 1 set_scale 0 rotate 40 41 translate
% ST_EMPTY
gsave
1 setlinewidth
0 0 0 nodecolor
96 847 63.14 18.38 ellipse_path stroke
0 0 0 nodecolor
14 /Times-Roman set_font
59 843.4 moveto 74 (ST_EMPTY) alignedtext
grestore
% ST_INIT
gsave
1 setlinewidth
0 0 0 nodecolor
96 755 50.2 18.38 ellipse_path stroke
0 0 0 nodecolor
14 /Times-Roman set_font
68.5 751.4 moveto 55 (ST_INIT) alignedtext
grestore
% ST_EMPTY->ST_INIT
gsave
1 setlinewidth
0 0 0 edgecolor
newpath 96 828.38 moveto
96 815.54 96 798.22 96 783.63 curveto
stroke
0 0 0 edgecolor
newpath 99.5 783.59 moveto
96 773.59 lineto
92.5 783.59 lineto
closepath fill
1 setlinewidth
solid
0 0 0 edgecolor
newpath 99.5 783.59 moveto
96 773.59 lineto
92.5 783.59 lineto
closepath stroke
0 0 0 edgecolor
14 /Times-Roman set_font
96 797.4 moveto 52 (SPAWN) alignedtext
grestore
% ST_WAIT
gsave
1 setlinewidth
0 0 0 nodecolor
413 663 56.07 18.38 ellipse_path stroke
0 0 0 nodecolor
14 /Times-Roman set_font
381 659.4 moveto 64 (ST_WAIT) alignedtext
grestore
% ST_INIT->ST_WAIT
gsave
1 setlinewidth
0 0 0 edgecolor
newpath 135.51 743.53 moveto
192.46 727.01 297.71 696.46 360.94 678.11 curveto
stroke
0 0 0 edgecolor
newpath 362.09 681.42 moveto
370.72 675.27 lineto
360.14 674.7 lineto
closepath fill
1 setlinewidth
solid
0 0 0 edgecolor
newpath 362.09 681.42 moveto
370.72 675.27 lineto
360.14 674.7 lineto
closepath stroke
0 0 0 edgecolor
14 /Times-Roman set_font
282 705.4 moveto 98 (INIT_LOGGED) alignedtext
grestore
% ST_SUB_WAIT
gsave
1 setlinewidth
0 0 0 nodecolor
174 571 82.02 18.38 ellipse_path stroke
0 0 0 nodecolor
14 /Times-Roman set_font
124 567.4 moveto 100 (ST_SUB_WAIT) alignedtext
grestore
% ST_INIT->ST_SUB_WAIT
gsave
1 setlinewidth
0 0 0 edgecolor
newpath 103.76 736.68 moveto
117.45 704.39 145.96 637.15 162.13 599 curveto
stroke
0 0 0 edgecolor
newpath 165.47 600.09 moveto
166.15 589.51 lineto
159.03 597.36 lineto
closepath fill
1 setlinewidth
solid
0 0 0 edgecolor
newpath 165.47 600.09 moveto
166.15 589.51 lineto
159.03 597.36 lineto
closepath stroke
0 0 0 edgecolor
14 /Times-Roman set_font
142 659.4 moveto 98 (INIT_LOGGED) alignedtext
grestore
% ST_ABORT
gsave
1 setlinewidth
0 0 0 nodecolor
64 479 63.85 18.38 ellipse_path stroke
0 0 0 nodecolor
14 /Times-Roman set_font
26.5 475.4 moveto 75 (ST_ABORT) alignedtext
grestore
% ST_INIT->ST_ABORT
gsave
1 setlinewidth
0 0 0 edgecolor
newpath 93.81 736.2 moveto
90.89 711.08 85.55 665.19 81 626 curveto
76.23 584.86 70.73 537.24 67.3 507.62 curveto
stroke
0 0 0 edgecolor
newpath 70.77 507.1 moveto
66.14 497.56 lineto
63.81 507.9 lineto
closepath fill
1 setlinewidth
solid
0 0 0 edgecolor
newpath 70.77 507.1 moveto
66.14 497.56 lineto
63.81 507.9 lineto
closepath stroke
0 0 0 edgecolor
14 /Times-Roman set_font
81 613.4 moveto 66 (TIMEOUT) alignedtext
grestore
% ST_INIT->ST_ABORT
gsave
1 setlinewidth
0 0 0 edgecolor
newpath 82.41 737 moveto
65.33 713.12 36.91 668.97 26 626 curveto
15.41 584.27 33.8 535.95 48.5 506.44 curveto
stroke
0 0 0 edgecolor
newpath 51.61 508.04 moveto
53.1 497.55 lineto
45.4 504.82 lineto
closepath fill
1 setlinewidth
solid
0 0 0 edgecolor
newpath 51.61 508.04 moveto
53.1 497.55 lineto
45.4 504.82 lineto
closepath stroke
0 0 0 edgecolor
14 /Times-Roman set_font
26 613.4 moveto 49 (ABORT) alignedtext
grestore
% ST_WAIT->ST_WAIT
gsave
1 setlinewidth
0 0 0 edgecolor
newpath 462.8 671.57 moveto
476.52 671.16 487 668.3 487 663 curveto
487 659.11 481.35 656.53 472.91 655.27 curveto
stroke
0 0 0 edgecolor
newpath 473.06 651.78 moveto
462.8 654.43 lineto
472.48 658.75 lineto
closepath fill
1 setlinewidth
solid
0 0 0 edgecolor
newpath 473.06 651.78 moveto
462.8 654.43 lineto
472.48 658.75 lineto
closepath stroke
0 0 0 edgecolor
14 /Times-Roman set_font
487 659.4 moveto 101 (JOB_FINISHED) alignedtext
grestore
% ST_WAIT->ST_SUB_WAIT
gsave
1 setlinewidth
0 0 0 edgecolor
newpath 360.13 656.68 moveto
290.79 648.13 177.13 633.14 171 626 curveto
164.82 618.81 163.88 608.94 165.04 599.54 curveto
stroke
0 0 0 edgecolor
newpath 168.49 600.17 moveto
166.99 589.68 lineto
161.62 598.82 lineto
closepath fill
1 setlinewidth
solid
0 0 0 edgecolor
newpath 168.49 600.17 moveto
166.99 589.68 lineto
161.62 598.82 lineto
closepath stroke
0 0 0 edgecolor
14 /Times-Roman set_font
171 613.4 moveto 101 (JOB_FINISHED) alignedtext
grestore
% ST_VOTES
gsave
1 setlinewidth
0 0 0 nodecolor
343 479 63.14 18.38 ellipse_path stroke
0 0 0 nodecolor
14 /Times-Roman set_font
306 475.4 moveto 74 (ST_VOTES) alignedtext
grestore
% ST_WAIT->ST_VOTES
gsave
1 setlinewidth
0 0 0 edgecolor
newpath 458.97 652.34 moveto
472.58 646.81 485.98 638.49 494 626 curveto
504.23 610.07 499.24 575.5 483 552 curveto
463.61 523.94 429.99 505.91 400.56 494.79 curveto
stroke
0 0 0 edgecolor
newpath 401.36 491.36 moveto
390.77 491.28 lineto
399 497.95 lineto
closepath fill
1 setlinewidth
solid
0 0 0 edgecolor
newpath 401.36 491.36 moveto
390.77 491.28 lineto
399 497.95 lineto
closepath stroke
0 0 0 edgecolor
14 /Times-Roman set_font
497 567.4 moveto 101 (JOB_FINISHED) alignedtext
grestore
% ST_AKN_ABORT
gsave
1 setlinewidth
0 0 0 nodecolor
315 295 90.01 18.38 ellipse_path stroke
0 0 0 nodecolor
14 /Times-Roman set_font
259 291.4 moveto 112 (ST_AKN_ABORT) alignedtext
grestore
% ST_WAIT->ST_AKN_ABORT
gsave
1 setlinewidth
0 0 0 edgecolor
newpath 461.78 653.72 moveto
529.29 639.47 643 609.71 643 571 curveto
643 571 643 571 643 387 curveto
643 361.78 647.97 348.62 629 332 curveto
612.77 317.78 497.97 307.07 411.84 300.92 curveto
stroke
0 0 0 edgecolor
newpath 411.97 297.42 moveto
401.75 300.21 lineto
411.48 304.4 lineto
closepath fill
1 setlinewidth
solid
0 0 0 edgecolor
newpath 411.97 297.42 moveto
401.75 300.21 lineto
411.48 304.4 lineto
closepath stroke
0 0 0 edgecolor
14 /Times-Roman set_font
643 475.4 moveto 49 (ABORT) alignedtext
grestore
% ST_WAIT->ST_AKN_ABORT
gsave
1 setlinewidth
0 0 0 edgecolor
newpath 467.51 658.35 moveto
557.67 649.13 728 624.63 728 571 curveto
728 571 728 571 728 387 curveto
728 344.22 689.05 347.04 649 332 curveto
607.06 316.25 495.21 306.08 412.44 300.46 curveto
stroke
0 0 0 edgecolor
newpath 412.46 296.96 moveto
402.25 299.78 lineto
411.99 303.94 lineto
closepath fill
1 setlinewidth
solid
0 0 0 edgecolor
newpath 412.46 296.96 moveto
402.25 299.78 lineto
411.99 303.94 lineto
closepath stroke
0 0 0 edgecolor
14 /Times-Roman set_font
728 475.4 moveto 66 (TIMEOUT) alignedtext
grestore
% ST_SUB_WAIT->ST_WAIT
gsave
1 setlinewidth
0 0 0 edgecolor
newpath 222.66 586.08 moveto
238.83 591.94 256.63 599.35 272 608 curveto
283.31 614.37 283.51 619.96 295 626 curveto
314.27 636.13 336.79 644.04 356.96 649.9 curveto
stroke
0 0 0 edgecolor
newpath 356.08 653.29 moveto
366.65 652.61 lineto
357.96 646.55 lineto
closepath fill
1 setlinewidth
solid
0 0 0 edgecolor
newpath 356.08 653.29 moveto
366.65 652.61 lineto
357.96 646.55 lineto
closepath stroke
0 0 0 edgecolor
14 /Times-Roman set_font
295 613.4 moveto 96 (SUB_COMMIT) alignedtext
grestore
% ST_SUB_WAIT->ST_WAIT
gsave
1 setlinewidth
0 0 0 edgecolor
newpath 252.5 576.36 moveto
305.66 581.46 369.93 590.98 391 608 curveto
399.19 614.62 404.35 624.75 407.59 634.51 curveto
stroke
0 0 0 edgecolor
newpath 404.29 635.69 moveto
410.32 644.4 lineto
411.03 633.83 lineto
closepath fill
1 setlinewidth
solid
0 0 0 edgecolor
newpath 404.29 635.69 moveto
410.32 644.4 lineto
411.03 633.83 lineto
closepath stroke
0 0 0 edgecolor
14 /Times-Roman set_font
404 613.4 moveto 86 (SUB_ABORT) alignedtext
grestore
% ST_SUB_WAIT->ST_SUB_WAIT
gsave
1 setlinewidth
0 0 0 edgecolor
newpath 254.43 574.89 moveto
266.12 574.27 274 572.98 274 571 curveto
274 569.67 270.44 568.65 264.56 567.94 curveto
stroke
0 0 0 edgecolor
newpath 264.68 564.43 moveto
254.43 567.11 lineto
264.11 571.41 lineto
closepath fill
1 setlinewidth
solid
0 0 0 edgecolor
newpath 264.68 564.43 moveto
254.43 567.11 lineto
264.11 571.41 lineto
closepath stroke
0 0 0 edgecolor
14 /Times-Roman set_font
274 567.4 moveto 96 (SUB_COMMIT) alignedtext
grestore
% ST_SUB_WAIT->ST_SUB_WAIT
gsave
1 setlinewidth
0 0 0 edgecolor
newpath 226.98 585.16 moveto
287.3 592.97 370 588.26 370 571 curveto
370 554.69 296.1 549.58 237.06 555.67 curveto
stroke
0 0 0 edgecolor
newpath 236.51 552.21 moveto
226.98 556.84 lineto
237.32 559.17 lineto
closepath fill
1 setlinewidth
solid
0 0 0 edgecolor
newpath 236.51 552.21 moveto
226.98 556.84 lineto
237.32 559.17 lineto
closepath stroke
0 0 0 edgecolor
14 /Times-Roman set_font
370 567.4 moveto 86 (SUB_ABORT) alignedtext
grestore
% ST_SUB_WAIT->ST_ABORT
gsave
1 setlinewidth
0 0 0 edgecolor
newpath 124.62 556.18 moveto
112.23 550.7 99.7 543.45 90 534 curveto
82.42 526.62 76.79 516.59 72.74 507.12 curveto
stroke
0 0 0 edgecolor
newpath 75.94 505.66 moveto
69.09 497.58 lineto
69.4 508.17 lineto
closepath fill
1 setlinewidth
solid
0 0 0 edgecolor
newpath 75.94 505.66 moveto
69.09 497.58 lineto
69.4 508.17 lineto
closepath stroke
0 0 0 edgecolor
14 /Times-Roman set_font
90 521.4 moveto 66 (TIMEOUT) alignedtext
grestore
% ST_SUB_WAIT->ST_VOTES
gsave
1 setlinewidth
0 0 0 edgecolor
newpath 236.41 558.96 moveto
266.62 552.19 298.92 543.25 311 534 curveto
320.1 527.02 327.09 516.66 332.17 506.8 curveto
stroke
0 0 0 edgecolor
newpath 335.39 508.18 moveto
336.47 497.64 lineto
329.06 505.2 lineto
closepath fill
1 setlinewidth
solid
0 0 0 edgecolor
newpath 335.39 508.18 moveto
336.47 497.64 lineto
329.06 505.2 lineto
closepath stroke
0 0 0 edgecolor
14 /Times-Roman set_font
325 521.4 moveto 96 (SUB_COMMIT) alignedtext
grestore
% ST_SUB_WAIT->ST_VOTES
gsave
1 setlinewidth
0 0 0 edgecolor
newpath 185.69 552.5 moveto
194.15 540.51 206.6 525.42 221 516 curveto
238.35 504.65 259.34 496.66 278.98 491.08 curveto
stroke
0 0 0 edgecolor
newpath 280.04 494.42 moveto
288.8 488.45 lineto
278.23 487.66 lineto
closepath fill
1 setlinewidth
solid
0 0 0 edgecolor
newpath 280.04 494.42 moveto
288.8 488.45 lineto
278.23 487.66 lineto
closepath stroke
0 0 0 edgecolor
14 /Times-Roman set_font
221 521.4 moveto 86 (SUB_ABORT) alignedtext
grestore
% ST_SUB_WAIT->ST_AKN_ABORT
gsave
1 setlinewidth
0 0 0 edgecolor
newpath 174.35 552.22 moveto
175.44 523.6 179.82 467.76 197 424 curveto
215.02 378.1 223.98 366.71 259 332 curveto
263.95 327.1 269.64 322.46 275.46 318.24 curveto
stroke
0 0 0 edgecolor
newpath 277.74 320.92 moveto
284 312.37 lineto
273.78 315.15 lineto
closepath fill
1 setlinewidth
solid
0 0 0 edgecolor
newpath 277.74 320.92 moveto
284 312.37 lineto
273.78 315.15 lineto
closepath stroke
0 0 0 edgecolor
14 /Times-Roman set_font
197 429.4 moveto 66 (TIMEOUT) alignedtext
grestore
% ST_LOG_END
gsave
1 setlinewidth
0 0 0 nodecolor
315 111 77.78 18.38 ellipse_path stroke
0 0 0 nodecolor
14 /Times-Roman set_font
268 107.4 moveto 94 (ST_LOG_END) alignedtext
grestore
% ST_ABORT->ST_LOG_END
gsave
1 setlinewidth
0 0 0 edgecolor
newpath 66.9 460.37 moveto
69.53 441.83 73 412.52 73 387 curveto
73 387 73 387 73 203 curveto
73 166.35 171.21 139.06 242.5 124.08 curveto
stroke
0 0 0 edgecolor
newpath 243.28 127.49 moveto
252.36 122.05 lineto
241.86 120.63 lineto
closepath fill
1 setlinewidth
solid
0 0 0 edgecolor
newpath 243.28 127.49 moveto
252.36 122.05 lineto
241.86 120.63 lineto
closepath stroke
0 0 0 edgecolor
14 /Times-Roman set_font
73 291.4 moveto 118 (ABORT_LOGGED) alignedtext
grestore
% ST_VOTES->ST_VOTES
gsave
1 setlinewidth
0 0 0 edgecolor
newpath 399.03 487.52 moveto
413.29 486.96 424 484.12 424 479 curveto
424 475.2 418.1 472.65 409.23 471.37 curveto
stroke
0 0 0 edgecolor
newpath 409.29 467.86 moveto
399.03 470.48 lineto
408.69 474.83 lineto
closepath fill
1 setlinewidth
solid
0 0 0 edgecolor
newpath 409.29 467.86 moveto
399.03 470.48 lineto
408.69 474.83 lineto
closepath stroke
0 0 0 edgecolor
14 /Times-Roman set_font
424 475.4 moveto 51 (VOTED) alignedtext
grestore
% ST_VOTES->ST_AKN_ABORT
gsave
1 setlinewidth
0 0 0 edgecolor
newpath 340.16 460.34 moveto
335.26 428.11 325.16 361.78 319.36 323.66 curveto
stroke
0 0 0 edgecolor
newpath 322.81 323.06 moveto
317.85 313.7 lineto
315.89 324.12 lineto
closepath fill
1 setlinewidth
solid
0 0 0 edgecolor
newpath 322.81 323.06 moveto
317.85 313.7 lineto
315.89 324.12 lineto
closepath stroke
0 0 0 edgecolor
14 /Times-Roman set_font
331 383.4 moveto 69 (VOTE_NO) alignedtext
grestore
% ST_VOTES->ST_AKN_ABORT
gsave
1 setlinewidth
0 0 0 edgecolor
newpath 312.35 462.76 moveto
292.24 450.23 267.58 430.84 256 406 curveto
242 375.97 265.36 342.51 286.69 320.26 curveto
stroke
0 0 0 edgecolor
newpath 289.19 322.71 moveto
293.79 313.16 lineto
284.24 317.76 lineto
closepath fill
1 setlinewidth
solid
0 0 0 edgecolor
newpath 289.19 322.71 moveto
293.79 313.16 lineto
284.24 317.76 lineto
closepath stroke
0 0 0 edgecolor
14 /Times-Roman set_font
256 383.4 moveto 66 (TIMEOUT) alignedtext
grestore
% ST_FN_COMMIT
gsave
1 setlinewidth
0 0 0 nodecolor
525 387 89.8 18.38 ellipse_path stroke
0 0 0 nodecolor
14 /Times-Roman set_font
469.5 383.4 moveto 111 (ST_FN_COMMIT) alignedtext
grestore
% ST_VOTES->ST_FN_COMMIT
gsave
1 setlinewidth
0 0 0 edgecolor
newpath 374.7 462.97 moveto
404.4 447.96 449.02 425.41 481.93 408.77 curveto
stroke
0 0 0 edgecolor
newpath 483.54 411.88 moveto
490.88 404.25 lineto
480.38 405.63 lineto
closepath fill
1 setlinewidth
solid
0 0 0 edgecolor
newpath 483.54 411.88 moveto
490.88 404.25 lineto
480.38 405.63 lineto
closepath stroke
0 0 0 edgecolor
14 /Times-Roman set_font
450 429.4 moveto 51 (VOTED) alignedtext
grestore
% ST_AKN_ABORT->ST_AKN_ABORT
gsave
1 setlinewidth
0 0 0 edgecolor
newpath 403.14 298.83 moveto
415.06 298.18 423 296.91 423 295 curveto
423 293.72 419.42 292.72 413.45 292.01 curveto
stroke
0 0 0 edgecolor
newpath 413.39 288.49 moveto
403.14 291.17 lineto
412.82 295.47 lineto
closepath fill
1 setlinewidth
solid
0 0 0 edgecolor
newpath 413.39 288.49 moveto
403.14 291.17 lineto
412.82 295.47 lineto
closepath stroke
0 0 0 edgecolor
14 /Times-Roman set_font
423 291.4 moveto 116 (AKNOWLEDGED) alignedtext
grestore
% ST_AKN_ABORT->ST_AKN_ABORT
gsave
1 setlinewidth
0 0 0 edgecolor
newpath 373.72 309.09 moveto
442.41 317 539 312.3 539 295 curveto
539 278.54 451.61 273.49 383.97 279.84 curveto
stroke
0 0 0 edgecolor
newpath 383.3 276.39 moveto
373.72 280.91 lineto
384.03 283.35 lineto
closepath fill
1 setlinewidth
solid
0 0 0 edgecolor
newpath 383.3 276.39 moveto
373.72 280.91 lineto
384.03 283.35 lineto
closepath stroke
0 0 0 edgecolor
14 /Times-Roman set_font
539 291.4 moveto 128 (OUTCOME_ASKED) alignedtext
grestore
% ST_AKN_ABORT->ST_LOG_END
gsave
1 setlinewidth
0 0 0 edgecolor
newpath 315 276.34 moveto
315 244.25 315 178.35 315 140.15 curveto
stroke
0 0 0 edgecolor
newpath 318.5 139.7 moveto
315 129.7 lineto
311.5 139.7 lineto
closepath fill
1 setlinewidth
solid
0 0 0 edgecolor
newpath 318.5 139.7 moveto
315 129.7 lineto
311.5 139.7 lineto
closepath stroke
0 0 0 edgecolor
14 /Times-Roman set_font
315 199.4 moveto 116 (AKNOWLEDGED) alignedtext
grestore
% ST_FN_COMMIT->ST_AKN_ABORT
gsave
1 setlinewidth
0 0 0 edgecolor
newpath 486.48 370.13 moveto
451.55 354.82 399.95 332.21 362.48 315.8 curveto
stroke
0 0 0 edgecolor
newpath 363.84 312.57 moveto
353.27 311.77 lineto
361.03 318.99 lineto
closepath fill
1 setlinewidth
solid
0 0 0 edgecolor
newpath 363.84 312.57 moveto
353.27 311.77 lineto
361.03 318.99 lineto
closepath stroke
0 0 0 edgecolor
14 /Times-Roman set_font
438 337.4 moveto 49 (ABORT) alignedtext
grestore
% ST_COMMIT_LOG
gsave
1 setlinewidth
0 0 0 nodecolor
800 295 97.08 18.38 ellipse_path stroke
0 0 0 nodecolor
14 /Times-Roman set_font
739 291.4 moveto 122 (ST_COMMIT_LOG) alignedtext
grestore
% ST_FN_COMMIT->ST_COMMIT_LOG
gsave
1 setlinewidth
0 0 0 edgecolor
newpath 572.27 371.18 moveto
619.21 355.48 691.25 331.38 741.71 314.5 curveto
stroke
0 0 0 edgecolor
newpath 743.12 317.72 moveto
751.5 311.23 lineto
740.9 311.08 lineto
closepath fill
1 setlinewidth
solid
0 0 0 edgecolor
newpath 743.12 317.72 moveto
751.5 311.23 lineto
740.9 311.08 lineto
closepath stroke
0 0 0 edgecolor
14 /Times-Roman set_font
687 337.4 moveto 59 (COMMIT) alignedtext
grestore
% ST_FINISH
gsave
1 setlinewidth
0 0 0 nodecolor
315 19 62.93 18.38 ellipse_path stroke
0 0 0 nodecolor
14 /Times-Roman set_font
278.5 15.4 moveto 73 (ST_FINISH) alignedtext
grestore
% ST_LOG_END->ST_FINISH
gsave
1 setlinewidth
0 0 0 edgecolor
newpath 315 92.38 moveto
315 79.54 315 62.22 315 47.63 curveto
stroke
0 0 0 edgecolor
newpath 318.5 47.59 moveto
315 37.59 lineto
311.5 47.59 lineto
closepath fill
1 setlinewidth
solid
0 0 0 edgecolor
newpath 318.5 47.59 moveto
315 37.59 lineto
311.5 47.59 lineto
closepath stroke
0 0 0 edgecolor
14 /Times-Roman set_font
315 61.4 moveto 100 (END_LOGGED) alignedtext
grestore
% ST_AKN_COMMIT
gsave
1 setlinewidth
0 0 0 nodecolor
609 203 96.87 18.38 ellipse_path stroke
0 0 0 nodecolor
14 /Times-Roman set_font
548.5 199.4 moveto 121 (ST_AKN_COMMIT) alignedtext
grestore
% ST_COMMIT_LOG->ST_AKN_COMMIT
gsave
1 setlinewidth
0 0 0 edgecolor
newpath 764.07 277.7 moveto
732.86 262.66 687.51 240.82 653.91 224.63 curveto
stroke
0 0 0 edgecolor
newpath 655.29 221.41 moveto
644.76 220.23 lineto
652.26 227.72 lineto
closepath fill
1 setlinewidth
solid
0 0 0 edgecolor
newpath 655.29 221.41 moveto
644.76 220.23 lineto
652.26 227.72 lineto
closepath stroke
0 0 0 edgecolor
14 /Times-Roman set_font
721 245.4 moveto 128 (COMMIT_LOGGED) alignedtext
grestore
% ST_AKN_COMMIT->ST_LOG_END
gsave
1 setlinewidth
0 0 0 edgecolor
newpath 558.46 187.18 moveto
506.68 170.98 426.32 145.84 372.23 128.91 curveto
stroke
0 0 0 edgecolor
newpath 373.04 125.5 moveto
362.45 125.85 lineto
370.95 132.18 lineto
closepath fill
1 setlinewidth
solid
0 0 0 edgecolor
newpath 373.04 125.5 moveto
362.45 125.85 lineto
370.95 132.18 lineto
closepath stroke
0 0 0 edgecolor
14 /Times-Roman set_font
488 153.4 moveto 116 (AKNOWLEDGED) alignedtext
grestore
% ST_AKN_COMMIT->ST_AKN_COMMIT
gsave
1 setlinewidth
0 0 0 edgecolor
newpath 704.18 206.76 moveto
716.13 206.09 724 204.84 724 203 curveto
724 201.76 720.45 200.79 714.49 200.09 curveto
stroke
0 0 0 edgecolor
newpath 714.43 196.57 moveto
704.18 199.24 lineto
713.86 203.55 lineto
closepath fill
1 setlinewidth
solid
0 0 0 edgecolor
newpath 714.43 196.57 moveto
704.18 199.24 lineto
713.86 203.55 lineto
closepath stroke
0 0 0 edgecolor
14 /Times-Roman set_font
724 199.4 moveto 128 (OUTCOME_ASKED) alignedtext
grestore
% ST_AKN_COMMIT->ST_AKN_COMMIT
gsave
1 setlinewidth
0 0 0 edgecolor
newpath 672.17 217.09 moveto
746.56 225 852 220.3 852 203 curveto
852 186.48 755.82 181.45 682.37 187.92 curveto
stroke
0 0 0 edgecolor
newpath 681.78 184.46 moveto
672.17 188.91 lineto
682.46 191.43 lineto
closepath fill
1 setlinewidth
solid
0 0 0 edgecolor
newpath 681.78 184.46 moveto
672.17 188.91 lineto
682.46 191.43 lineto
closepath stroke
0 0 0 edgecolor
14 /Times-Roman set_font
852 199.4 moveto 116 (AKNOWLEDGED) alignedtext
grestore
endpage
showpage
grestore
%%PageTrailer
%%EndPage: 1
%%Trailer
end
restore
%%EOF
