%!PS-Adobe-3.0 EPSF-3.0
%%Creator: graphviz version 2.26.3 (20100126.1600)
%%Title: a
%%Pages: 1
%%BoundingBox: 36 36 719 930
%%EndComments
save
%%BeginProlog
/DotDict 200 dict def
DotDict begin

/setupLatin1 {
mark
/EncodingVector 256 array def
 EncodingVector 0

ISOLatin1Encoding 0 255 getinterval putinterval
EncodingVector 45 /hyphen put

% Set up ISO Latin 1 character encoding
/starnetISO {
        dup dup findfont dup length dict begin
        { 1 index /FID ne { def }{ pop pop } ifelse
        } forall
        /Encoding EncodingVector def
        currentdict end definefont
} def
/Times-Roman starnetISO def
/Times-Italic starnetISO def
/Times-Bold starnetISO def
/Times-BoldItalic starnetISO def
/Helvetica starnetISO def
/Helvetica-Oblique starnetISO def
/Helvetica-Bold starnetISO def
/Helvetica-BoldOblique starnetISO def
/Courier starnetISO def
/Courier-Oblique starnetISO def
/Courier-Bold starnetISO def
/Courier-BoldOblique starnetISO def
cleartomark
} bind def

%%BeginResource: procset graphviz 0 0
/coord-font-family /Times-Roman def
/default-font-family /Times-Roman def
/coordfont coord-font-family findfont 8 scalefont def

/InvScaleFactor 1.0 def
/set_scale {
       dup 1 exch div /InvScaleFactor exch def
       scale
} bind def

% styles
/solid { [] 0 setdash } bind def
/dashed { [9 InvScaleFactor mul dup ] 0 setdash } bind def
/dotted { [1 InvScaleFactor mul 6 InvScaleFactor mul] 0 setdash } bind def
/invis {/fill {newpath} def /stroke {newpath} def /show {pop newpath} def} bind def
/bold { 2 setlinewidth } bind def
/filled { } bind def
/unfilled { } bind def
/rounded { } bind def
/diagonals { } bind def

% hooks for setting color 
/nodecolor { sethsbcolor } bind def
/edgecolor { sethsbcolor } bind def
/graphcolor { sethsbcolor } bind def
/nopcolor {pop pop pop} bind def

/beginpage {	% i j npages
	/npages exch def
	/j exch def
	/i exch def
	/str 10 string def
	npages 1 gt {
		gsave
			coordfont setfont
			0 0 moveto
			(\() show i str cvs show (,) show j str cvs show (\)) show
		grestore
	} if
} bind def

/set_font {
	findfont exch
	scalefont setfont
} def

% draw text fitted to its expected width
/alignedtext {			% width text
	/text exch def
	/width exch def
	gsave
		width 0 gt {
			[] 0 setdash
			text stringwidth pop width exch sub text length div 0 text ashow
		} if
	grestore
} def

/boxprim {				% xcorner ycorner xsize ysize
		4 2 roll
		moveto
		2 copy
		exch 0 rlineto
		0 exch rlineto
		pop neg 0 rlineto
		closepath
} bind def

/ellipse_path {
	/ry exch def
	/rx exch def
	/y exch def
	/x exch def
	matrix currentmatrix
	newpath
	x y translate
	rx ry scale
	0 0 1 0 360 arc
	setmatrix
} bind def

/endpage { showpage } bind def
/showpage { } def

/layercolorseq
	[	% layer color sequence - darkest to lightest
		[0 0 0]
		[.2 .8 .8]
		[.4 .8 .8]
		[.6 .8 .8]
		[.8 .8 .8]
	]
def

/layerlen layercolorseq length def

/setlayer {/maxlayer exch def /curlayer exch def
	layercolorseq curlayer 1 sub layerlen mod get
	aload pop sethsbcolor
	/nodecolor {nopcolor} def
	/edgecolor {nopcolor} def
	/graphcolor {nopcolor} def
} bind def

/onlayer { curlayer ne {invis} if } def

/onlayers {
	/myupper exch def
	/mylower exch def
	curlayer mylower lt
	curlayer myupper gt
	or
	{invis} if
} def

/curlayer 0 def

%%EndResource
%%EndProlog
%%BeginSetup
14 default-font-family set_font
1 setmiterlimit
% /arrowlength 10 def
% /arrowwidth 5 def

% make sure pdfmark is harmless for PS-interpreters other than Distiller
/pdfmark where {pop} {userdict /pdfmark /cleartomark load put} ifelse
% make '<<' and '>>' safe on PS Level 1 devices
/languagelevel where {pop languagelevel}{1} ifelse
2 lt {
    userdict (<<) cvn ([) cvn load put
    userdict (>>) cvn ([) cvn load put
} if

%%EndSetup
setupLatin1
%%Page: 1 1
%%PageBoundingBox: 36 36 719 930
%%PageOrientation: Portrait
0 0 1 beginpage
gsave
36 36 683 894 boxprim clip newpath
1 1 set_scale 0 rotate 40 41 translate
% ST_EMPTY
gsave
1 setlinewidth
0 0 0 nodecolor
424 867 63.14 18.38 ellipse_path stroke
0 0 0 nodecolor
14 /Times-Roman set_font
387 863.4 moveto 74 (ST_EMPTY) alignedtext
grestore
% ST_LOCK
gsave
1 setlinewidth
0 0 0 nodecolor
424 775 56.07 18.38 ellipse_path stroke
0 0 0 nodecolor
14 /Times-Roman set_font
392 771.4 moveto 64 (ST_LOCK) alignedtext
grestore
% ST_EMPTY->ST_LOCK
gsave
1 setlinewidth
0 0 0 edgecolor
newpath 424 848.38 moveto
424 835.54 424 818.22 424 803.63 curveto
stroke
0 0 0 edgecolor
newpath 427.5 803.59 moveto
424 793.59 lineto
420.5 803.59 lineto
closepath fill
1 setlinewidth
solid
0 0 0 edgecolor
newpath 427.5 803.59 moveto
424 793.59 lineto
420.5 803.59 lineto
closepath stroke
0 0 0 edgecolor
14 /Times-Roman set_font
424 817.4 moveto 74 (FIRST_JOB) alignedtext
grestore
% ST_LOCK->ST_LOCK
gsave
1 setlinewidth
0 0 0 edgecolor
newpath 473.8 783.57 moveto
487.52 783.16 498 780.3 498 775 curveto
498 771.11 492.35 768.53 483.91 767.27 curveto
stroke
0 0 0 edgecolor
newpath 484.06 763.78 moveto
473.8 766.43 lineto
483.48 770.75 lineto
closepath fill
1 setlinewidth
solid
0 0 0 edgecolor
newpath 484.06 763.78 moveto
473.8 766.43 lineto
483.48 770.75 lineto
closepath stroke
0 0 0 edgecolor
14 /Times-Roman set_font
498 771.4 moveto 108 (ASK_OUTCOME) alignedtext
grestore
% ST_JOB
gsave
1 setlinewidth
0 0 0 nodecolor
424 683 48.08 18.38 ellipse_path stroke
0 0 0 nodecolor
14 /Times-Roman set_font
398 679.4 moveto 52 (ST_JOB) alignedtext
grestore
% ST_LOCK->ST_JOB
gsave
1 setlinewidth
0 0 0 edgecolor
newpath 424 756.38 moveto
424 743.54 424 726.22 424 711.63 curveto
stroke
0 0 0 edgecolor
newpath 427.5 711.59 moveto
424 701.59 lineto
420.5 711.59 lineto
closepath fill
1 setlinewidth
solid
0 0 0 edgecolor
newpath 427.5 711.59 moveto
424 701.59 lineto
420.5 711.59 lineto
closepath stroke
0 0 0 edgecolor
14 /Times-Roman set_font
424 725.4 moveto 58 (LOCKED) alignedtext
grestore
% ST_WAR
gsave
1 setlinewidth
0 0 0 nodecolor
470 315 53.24 18.38 ellipse_path stroke
0 0 0 nodecolor
14 /Times-Roman set_font
440 311.4 moveto 60 (ST_WAR) alignedtext
grestore
% ST_LOCK->ST_WAR
gsave
1 setlinewidth
0 0 0 edgecolor
newpath 469.33 764 moveto
528.89 748.2 626 717.2 626 683 curveto
626 683 626 683 626 407 curveto
626 359.94 572.67 336.46 528.37 325.07 curveto
stroke
0 0 0 edgecolor
newpath 529.05 321.63 moveto
518.5 322.69 lineto
527.4 328.44 lineto
closepath fill
1 setlinewidth
solid
0 0 0 edgecolor
newpath 529.05 321.63 moveto
518.5 322.69 lineto
527.4 328.44 lineto
closepath stroke
0 0 0 edgecolor
14 /Times-Roman set_font
626 541.4 moveto 49 (ABORT) alignedtext
grestore
% ST_JOB->ST_JOB
gsave
1 setlinewidth
0 0 0 edgecolor
newpath 466.53 691.62 moveto
479.68 691.44 490 688.57 490 683 curveto
490 678.95 484.55 676.33 476.53 675.13 curveto
stroke
0 0 0 edgecolor
newpath 476.76 671.64 moveto
466.53 674.38 lineto
476.24 678.62 lineto
closepath fill
1 setlinewidth
solid
0 0 0 edgecolor
newpath 476.76 671.64 moveto
466.53 674.38 lineto
476.24 678.62 lineto
closepath stroke
0 0 0 edgecolor
14 /Times-Roman set_font
490 679.4 moveto 108 (ASK_OUTCOME) alignedtext
grestore
% ST_JOB->ST_WAR
gsave
1 setlinewidth
0 0 0 edgecolor
newpath 459.41 670.43 moveto
491.57 656.49 534 630.58 534 591 curveto
534 591 534 591 534 407 curveto
534 380.68 516.13 356.48 499.27 339.52 curveto
stroke
0 0 0 edgecolor
newpath 501.32 336.63 moveto
491.67 332.25 lineto
496.48 341.69 lineto
closepath fill
1 setlinewidth
solid
0 0 0 edgecolor
newpath 501.32 336.63 moveto
491.67 332.25 lineto
496.48 341.69 lineto
closepath stroke
0 0 0 edgecolor
14 /Times-Roman set_font
534 495.4 moveto 49 (ABORT) alignedtext
grestore
% ST_WAIT
gsave
1 setlinewidth
0 0 0 nodecolor
309 591 56.07 18.38 ellipse_path stroke
0 0 0 nodecolor
14 /Times-Roman set_font
277 587.4 moveto 64 (ST_WAIT) alignedtext
grestore
% ST_JOB->ST_WAIT
gsave
1 setlinewidth
0 0 0 edgecolor
newpath 402.91 666.13 moveto
384.9 651.72 358.79 630.84 338.68 614.74 curveto
stroke
0 0 0 edgecolor
newpath 340.74 611.91 moveto
330.74 608.39 lineto
336.36 617.37 lineto
closepath fill
1 setlinewidth
solid
0 0 0 edgecolor
newpath 340.74 611.91 moveto
330.74 608.39 lineto
336.36 617.37 lineto
closepath stroke
0 0 0 edgecolor
14 /Times-Roman set_font
377 633.4 moveto 101 (JOB_FINISHED) alignedtext
grestore
% ST_RECOVER
gsave
1 setlinewidth
0 0 0 nodecolor
321 203 77.78 18.38 ellipse_path stroke
0 0 0 nodecolor
14 /Times-Roman set_font
274 199.4 moveto 94 (ST_RECOVER) alignedtext
grestore
% ST_WAR->ST_RECOVER
gsave
1 setlinewidth
0 0 0 edgecolor
newpath 425.17 305.12 moveto
396.6 298.05 362.97 288.04 352 278 curveto
338.7 265.82 330.95 247.08 326.53 231.38 curveto
stroke
0 0 0 edgecolor
newpath 329.9 230.45 moveto
324.07 221.6 lineto
323.11 232.15 lineto
closepath fill
1 setlinewidth
solid
0 0 0 edgecolor
newpath 329.9 230.45 moveto
324.07 221.6 lineto
323.11 232.15 lineto
closepath stroke
0 0 0 edgecolor
14 /Times-Roman set_font
352 255.4 moveto 118 (ABORT_LOGGED) alignedtext
grestore
% ST_ABORT
gsave
1 setlinewidth
0 0 0 nodecolor
481 203 63.85 18.38 ellipse_path stroke
0 0 0 nodecolor
14 /Times-Roman set_font
443.5 199.4 moveto 75 (ST_ABORT) alignedtext
grestore
% ST_WAR->ST_ABORT
gsave
1 setlinewidth
0 0 0 edgecolor
newpath 471.82 296.51 moveto
473.55 278.83 476.19 251.94 478.2 231.52 curveto
stroke
0 0 0 edgecolor
newpath 481.69 231.82 moveto
479.18 221.52 lineto
474.72 231.13 lineto
closepath fill
1 setlinewidth
solid
0 0 0 edgecolor
newpath 481.69 231.82 moveto
479.18 221.52 lineto
474.72 231.13 lineto
closepath stroke
0 0 0 edgecolor
14 /Times-Roman set_font
478 255.4 moveto 127 (LOG_RECOVERED) alignedtext
grestore
% ST_WAIT->ST_LOCK
gsave
1 setlinewidth
0 0 0 edgecolor
newpath 298.32 609.26 moveto
286.3 632.43 270.58 672.88 288 702 curveto
305.55 731.34 339.38 749.57 368.91 760.47 curveto
stroke
0 0 0 edgecolor
newpath 368.14 763.91 moveto
378.73 763.89 lineto
370.44 757.3 lineto
closepath fill
1 setlinewidth
solid
0 0 0 edgecolor
newpath 368.14 763.91 moveto
378.73 763.89 lineto
370.44 757.3 lineto
closepath stroke
0 0 0 edgecolor
14 /Times-Roman set_font
288 679.4 moveto 79 (START_JOB) alignedtext
grestore
% ST_WAIT->ST_WAR
gsave
1 setlinewidth
0 0 0 edgecolor
newpath 354.6 580.08 moveto
387.09 569.77 428.79 550.84 451 518 curveto
469.71 490.33 471.16 393.13 470.63 343.96 curveto
stroke
0 0 0 edgecolor
newpath 474.13 343.62 moveto
470.48 333.67 lineto
467.13 343.72 lineto
closepath fill
1 setlinewidth
solid
0 0 0 edgecolor
newpath 474.13 343.62 moveto
470.48 333.67 lineto
467.13 343.72 lineto
closepath stroke
0 0 0 edgecolor
14 /Times-Roman set_font
468 449.4 moveto 49 (ABORT) alignedtext
grestore
% ST_WAIT->ST_WAIT
gsave
1 setlinewidth
0 0 0 edgecolor
newpath 358.8 599.57 moveto
372.52 599.16 383 596.3 383 591 curveto
383 587.11 377.35 584.53 368.91 583.27 curveto
stroke
0 0 0 edgecolor
newpath 369.06 579.78 moveto
358.8 582.43 lineto
368.48 586.75 lineto
closepath fill
1 setlinewidth
solid
0 0 0 edgecolor
newpath 369.06 579.78 moveto
358.8 582.43 lineto
368.48 586.75 lineto
closepath stroke
0 0 0 edgecolor
14 /Times-Roman set_font
383 587.4 moveto 108 (ASK_OUTCOME) alignedtext
grestore
% ST_VOTE
gsave
1 setlinewidth
0 0 0 nodecolor
259 499 56.78 18.38 ellipse_path stroke
0 0 0 nodecolor
14 /Times-Roman set_font
226.5 495.4 moveto 65 (ST_VOTE) alignedtext
grestore
% ST_WAIT->ST_VOTE
gsave
1 setlinewidth
0 0 0 edgecolor
newpath 298.88 572.38 moveto
291.65 559.08 281.81 540.97 273.71 526.07 curveto
stroke
0 0 0 edgecolor
newpath 276.78 524.39 moveto
268.93 517.28 lineto
270.63 527.73 lineto
closepath fill
1 setlinewidth
solid
0 0 0 edgecolor
newpath 276.78 524.39 moveto
268.93 517.28 lineto
270.63 527.73 lineto
closepath stroke
0 0 0 edgecolor
14 /Times-Roman set_font
289 541.4 moveto 65 (PREPARE) alignedtext
grestore
% ST_VOTE->ST_WAR
gsave
1 setlinewidth
0 0 0 edgecolor
newpath 286.57 482.55 moveto
308.91 468.67 340.72 447.65 366 426 curveto
397.04 399.41 428.55 364.41 448.63 340.88 curveto
stroke
0 0 0 edgecolor
newpath 451.45 342.96 moveto
455.23 333.07 lineto
446.1 338.44 lineto
closepath fill
1 setlinewidth
solid
0 0 0 edgecolor
newpath 451.45 342.96 moveto
455.23 333.07 lineto
446.1 338.44 lineto
closepath stroke
0 0 0 edgecolor
14 /Times-Roman set_font
405 403.4 moveto 49 (ABORT) alignedtext
grestore
% ST_VOTE->ST_VOTE
gsave
1 setlinewidth
0 0 0 edgecolor
newpath 309.83 507.56 moveto
323.56 507.11 334 504.26 334 499 curveto
334 495.14 328.37 492.58 319.94 491.31 curveto
stroke
0 0 0 edgecolor
newpath 320.09 487.81 moveto
309.83 490.44 lineto
319.49 494.78 lineto
closepath fill
1 setlinewidth
solid
0 0 0 edgecolor
newpath 320.09 487.81 moveto
309.83 490.44 lineto
319.49 494.78 lineto
closepath stroke
0 0 0 edgecolor
14 /Times-Roman set_font
334 495.4 moveto 108 (ASK_OUTCOME) alignedtext
grestore
% ST_DEC
gsave
1 setlinewidth
0 0 0 nodecolor
97 407 50.91 18.38 ellipse_path stroke
0 0 0 nodecolor
14 /Times-Roman set_font
69 403.4 moveto 56 (ST_DEC) alignedtext
grestore
% ST_VOTE->ST_DEC
gsave
1 setlinewidth
0 0 0 edgecolor
newpath 230.41 482.76 moveto
203.33 467.38 162.55 444.22 133.2 427.56 curveto
stroke
0 0 0 edgecolor
newpath 134.92 424.51 moveto
124.49 422.61 lineto
131.46 430.6 lineto
closepath fill
1 setlinewidth
solid
0 0 0 edgecolor
newpath 134.92 424.51 moveto
124.49 422.61 lineto
131.46 430.6 lineto
closepath stroke
0 0 0 edgecolor
14 /Times-Roman set_font
193 449.4 moveto 109 (VOTE_LOGGED) alignedtext
grestore
% ST_DEC->ST_WAR
gsave
1 setlinewidth
0 0 0 edgecolor
newpath 139.42 396.54 moveto
207.63 379.71 341.57 346.68 416.32 328.24 curveto
stroke
0 0 0 edgecolor
newpath 417.59 331.53 moveto
426.46 325.74 lineto
415.92 324.73 lineto
closepath fill
1 setlinewidth
solid
0 0 0 edgecolor
newpath 417.59 331.53 moveto
426.46 325.74 lineto
415.92 324.73 lineto
closepath stroke
0 0 0 edgecolor
14 /Times-Roman set_font
317 357.4 moveto 49 (ABORT) alignedtext
grestore
% ST_DEC->ST_DEC
gsave
1 setlinewidth
0 0 0 edgecolor
newpath 146.93 411.2 moveto
157.96 410.8 166 409.4 166 407 curveto
166 405.42 162.54 404.28 157.04 403.57 curveto
stroke
0 0 0 edgecolor
newpath 157.16 400.07 moveto
146.93 402.8 lineto
156.64 407.05 lineto
closepath fill
1 setlinewidth
solid
0 0 0 edgecolor
newpath 157.16 400.07 moveto
146.93 402.8 lineto
156.64 407.05 lineto
closepath stroke
0 0 0 edgecolor
14 /Times-Roman set_font
166 403.4 moveto 65 (PREPARE) alignedtext
grestore
% ST_DEC->ST_DEC
gsave
1 setlinewidth
0 0 0 edgecolor
newpath 131.48 420.63 moveto
173.16 429.17 231 424.63 231 407 curveto
231 390.75 181.85 385.62 141.51 391.61 curveto
stroke
0 0 0 edgecolor
newpath 140.73 388.19 moveto
131.48 393.37 lineto
141.94 395.08 lineto
closepath fill
1 setlinewidth
solid
0 0 0 edgecolor
newpath 140.73 388.19 moveto
131.48 393.37 lineto
141.94 395.08 lineto
closepath stroke
0 0 0 edgecolor
14 /Times-Roman set_font
231 403.4 moveto 108 (ASK_OUTCOME) alignedtext
grestore
% ST_COMMIT_LOG
gsave
1 setlinewidth
0 0 0 nodecolor
97 259 97.08 18.38 ellipse_path stroke
0 0 0 nodecolor
14 /Times-Roman set_font
36 255.4 moveto 122 (ST_COMMIT_LOG) alignedtext
grestore
% ST_DEC->ST_COMMIT_LOG
gsave
1 setlinewidth
0 0 0 edgecolor
newpath 97 388.26 moveto
97 362.9 97 317.44 97 287.75 curveto
stroke
0 0 0 edgecolor
newpath 100.5 287.59 moveto
97 277.59 lineto
93.5 287.59 lineto
closepath fill
1 setlinewidth
solid
0 0 0 edgecolor
newpath 100.5 287.59 moveto
97 277.59 lineto
93.5 287.59 lineto
closepath stroke
0 0 0 edgecolor
14 /Times-Roman set_font
97 357.4 moveto 59 (COMMIT) alignedtext
grestore
% ST_LOG_END
gsave
1 setlinewidth
0 0 0 nodecolor
321 111 77.78 18.38 ellipse_path stroke
0 0 0 nodecolor
14 /Times-Roman set_font
274 107.4 moveto 94 (ST_LOG_END) alignedtext
grestore
% ST_COMMIT_LOG->ST_LOG_END
gsave
1 setlinewidth
0 0 0 edgecolor
newpath 94.09 240.24 moveto
92.61 223.64 93.28 199.69 106 184 curveto
124.92 160.68 197.46 139.26 253.11 125.74 curveto
stroke
0 0 0 edgecolor
newpath 254.02 129.12 moveto
262.94 123.39 lineto
252.4 122.31 lineto
closepath fill
1 setlinewidth
solid
0 0 0 edgecolor
newpath 254.02 129.12 moveto
262.94 123.39 lineto
252.4 122.31 lineto
closepath stroke
0 0 0 edgecolor
14 /Times-Roman set_font
106 199.4 moveto 128 (COMMIT_LOGGED) alignedtext
grestore
% ST_LOG_END->ST_LOG_END
gsave
1 setlinewidth
0 0 0 edgecolor
newpath 390.9 119.37 moveto
406.03 118.55 417 115.76 417 111 curveto
417 107.39 410.7 104.92 401.06 103.57 curveto
stroke
0 0 0 edgecolor
newpath 401.18 100.07 moveto
390.9 102.63 lineto
400.53 107.04 lineto
closepath fill
1 setlinewidth
solid
0 0 0 edgecolor
newpath 401.18 100.07 moveto
390.9 102.63 lineto
400.53 107.04 lineto
closepath stroke
0 0 0 edgecolor
14 /Times-Roman set_font
417 107.4 moveto 65 (PREPARE) alignedtext
grestore
% ST_FINISH
gsave
1 setlinewidth
0 0 0 nodecolor
321 19 62.93 18.38 ellipse_path stroke
0 0 0 nodecolor
14 /Times-Roman set_font
284.5 15.4 moveto 73 (ST_FINISH) alignedtext
grestore
% ST_LOG_END->ST_FINISH
gsave
1 setlinewidth
0 0 0 edgecolor
newpath 321 92.38 moveto
321 79.54 321 62.22 321 47.63 curveto
stroke
0 0 0 edgecolor
newpath 324.5 47.59 moveto
321 37.59 lineto
317.5 47.59 lineto
closepath fill
1 setlinewidth
solid
0 0 0 edgecolor
newpath 324.5 47.59 moveto
321 37.59 lineto
317.5 47.59 lineto
closepath stroke
0 0 0 edgecolor
14 /Times-Roman set_font
321 61.4 moveto 100 (END_LOGGED) alignedtext
grestore
% ST_RECOVER->ST_LOG_END
gsave
1 setlinewidth
0 0 0 edgecolor
newpath 321 184.38 moveto
321 171.54 321 154.22 321 139.63 curveto
stroke
0 0 0 edgecolor
newpath 324.5 139.59 moveto
321 129.59 lineto
317.5 139.59 lineto
closepath fill
1 setlinewidth
solid
0 0 0 edgecolor
newpath 324.5 139.59 moveto
321 129.59 lineto
317.5 139.59 lineto
closepath stroke
0 0 0 edgecolor
14 /Times-Roman set_font
321 153.4 moveto 127 (LOG_RECOVERED) alignedtext
grestore
% ST_ABORT->ST_LOG_END
gsave
1 setlinewidth
0 0 0 edgecolor
newpath 475.48 184.43 moveto
470.99 172.4 463.5 157.3 452 148 curveto
441.9 139.83 416.31 131.85 390.4 125.41 curveto
stroke
0 0 0 edgecolor
newpath 391.03 121.96 moveto
380.49 123.01 lineto
389.39 128.76 lineto
closepath fill
1 setlinewidth
solid
0 0 0 edgecolor
newpath 391.03 121.96 moveto
380.49 123.01 lineto
389.39 128.76 lineto
closepath stroke
0 0 0 edgecolor
14 /Times-Roman set_font
467 153.4 moveto 118 (ABORT_LOGGED) alignedtext
grestore
endpage
showpage
grestore
%%PageTrailer
%%EndPage: 1
%%Trailer
end
restore
%%EOF
